<svg width="28" height="28" viewBox="0 0 28 28" fill="none" xmlns="http://www.w3.org/2000/svg">
<circle cx="14" cy="14" r="14" fill="#9DA8B6"/>
<path d="M18.5541 14.3945H13.4501H8.60556C8.41443 14.3945 8 14.162 8 13.6969C8 13.2318 8.41446 12.9992 8.60556 12.9992H13.4501H18.5541C18.7452 12.9992 19.1597 13.2318 19.1597 13.6969C19.1597 14.162 18.7452 14.3945 18.5541 14.3945Z" fill="white"/>
</svg>
